Bokmål-Danish,73,476,37,168,116.6,58.2,15,391,5,320,25.2,8.7
Danish-Swedish,74,062,33,043,118.1,51.5,16,560,4,619,27.2,7.6
Bokmål-Swedish,80,998,31,315,129.4,48.4,15,407,4,764,25.3,7.8
English-Danish,87,037,32,257,135.9,49.6,21,956,6,528,35.8,10.8
English-Swedish,102,186,29,675,159.49,45.8,22,779,6,241,36.7,10.1
English-Bokmål,103,560,36,719,160.9,56.0,21,621,6,426,35.2,10.6

